{
  "project_info": {
    "project_number": "211373548991",
    "project_id": "medai-amardaktar",
    "storage_bucket": "medai-amardaktar.appspot.com"
  },
  "client": [
    {
      "client_info": {
        "mobilesdk_app_id": "1:211373548991:android:fa9d0c2875b1b36bf9ad0a",
        "android_client_info": {
          "package_name": "com.medai.amardaktar"
        }
      },
      "oauth_client": [],
      "api_key": [
        {
          "current_key": "AIzaSyAFXaKSIPglYWb8s1-BuYoPHToyVt_pS3U"
        }
      ],
      "services": {
        "appinvite_service": {
          "other_platform_oauth_client": []
        }
      }
    }
  ],
  "configuration_version": "1"
}